module gitlab.wikimedia.org/repos/releng/blubber

require (
	github.com/atsushinee/go-markdown-generator v0.0.0-20231027094725-92d26ffbe778
	github.com/containerd/containerd v1.6.20
	github.com/containers/image/v5 v5.25.0
	github.com/cucumber/godog v0.14.1
	github.com/distribution/distribution v2.8.1+incompatible
	github.com/getkin/kin-openapi v0.90.0
	github.com/ghodss/yaml v1.0.0
	github.com/git-chglog/git-chglog v0.15.1
	github.com/google/shlex v0.0.0-20191202100458-e7afc7fbc510
	github.com/moby/buildkit v0.11.6
	github.com/opencontainers/image-spec v1.1.0-rc2.0.20221005185240-3a7f492d3f1b
	github.com/pborman/getopt v1.1.0
	github.com/pborman/getopt/v2 v2.1.0
	github.com/pkg/errors v0.9.1
	github.com/santhosh-tekuri/jsonschema/v5 v5.3.1
	github.com/stretchr/testify v1.8.2
	github.com/utahta/go-openuri v0.1.0
	github.com/wk8/go-ordered-map v0.1.0
	golang.org/x/lint v0.0.0-20200302205851-738671d3881b
	golang.org/x/sync v0.1.0
	gopkg.in/go-playground/validator.v9 v9.31.0
)

require (
	github.com/AlecAivazis/survey/v2 v2.3.2 // indirect
	github.com/Masterminds/goutils v1.1.1 // indirect
	github.com/Masterminds/semver/v3 v3.1.1 // indirect
	github.com/Masterminds/sprig/v3 v3.2.2 // indirect
	github.com/Microsoft/go-winio v0.6.0 // indirect
	github.com/agext/levenshtein v1.2.3 // indirect
	github.com/andygrunwald/go-jira v1.14.0 // indirect
	github.com/containerd/continuity v0.3.0 // indirect
	github.com/containerd/ttrpc v1.1.1 // indirect
	github.com/containerd/typeurl v1.0.2 // indirect
	github.com/containers/libtrust v0.0.0-20230121012942-c1716e8a8d01 // indirect
	github.com/containers/ocicrypt v1.1.7 // indirect
	github.com/containers/storage v1.46.0 // indirect
	github.com/coreos/go-semver v0.3.0 // indirect
	github.com/cpuguy83/go-md2man/v2 v2.0.2 // indirect
	github.com/cucumber/gherkin/go/v26 v26.2.0 // indirect
	github.com/cucumber/messages/go/v21 v21.0.1 // indirect
	github.com/davecgh/go-spew v1.1.1 // indirect
	github.com/docker/distribution v2.8.1+incompatible // indirect
	github.com/docker/docker v23.0.2+incompatible // indirect
	github.com/docker/go-connections v0.4.0 // indirect
	github.com/docker/go-units v0.5.0 // indirect
	github.com/fatih/color v1.13.0 // indirect
	github.com/fatih/structs v1.1.0 // indirect
	github.com/go-logr/logr v1.2.3 // indirect
	github.com/go-logr/stdr v1.2.2 // indirect
	github.com/go-openapi/jsonpointer v0.19.5 // indirect
	github.com/go-openapi/swag v0.22.3 // indirect
	github.com/go-playground/locales v0.14.1 // indirect
	github.com/go-playground/universal-translator v0.18.1 // indirect
	github.com/gofrs/flock v0.8.1 // indirect
	github.com/gofrs/uuid v4.3.1+incompatible // indirect
	github.com/gogo/googleapis v1.4.1 // indirect
	github.com/gogo/protobuf v1.3.2 // indirect
	github.com/golang-jwt/jwt v3.2.1+incompatible // indirect
	github.com/golang/protobuf v1.5.3 // indirect
	github.com/google/go-querystring v0.0.0-20170111101155-53e6ce116135 // indirect
	github.com/google/uuid v1.3.0 // indirect
	github.com/grpc-ecosystem/go-grpc-middleware v1.3.0 // indirect
	github.com/grpc-ecosystem/grpc-gateway v1.16.0 // indirect
	github.com/hashicorp/go-immutable-radix v1.3.1 // indirect
	github.com/hashicorp/go-memdb v1.3.4 // indirect
	github.com/hashicorp/golang-lru v0.5.4 // indirect
	github.com/huandu/xstrings v1.3.1 // indirect
	github.com/imdario/mergo v0.3.15 // indirect
	github.com/josharian/intern v1.0.0 // indirect
	github.com/json-iterator/go v1.1.12 // indirect
	github.com/kballard/go-shellquote v0.0.0-20180428030007-95032a82bc51 // indirect
	github.com/klauspost/compress v1.16.3 // indirect
	github.com/klauspost/pgzip v1.2.6-0.20220930104621-17e8dac29df8 // indirect
	github.com/kyokomi/emoji/v2 v2.2.8 // indirect
	github.com/leodido/go-urn v1.2.2 // indirect
	github.com/mailru/easyjson v0.7.7 // indirect
	github.com/mattn/go-colorable v0.1.11 // indirect
	github.com/mattn/go-isatty v0.0.14 // indirect
	github.com/mgutz/ansi v0.0.0-20170206155736-9520e82c474b // indirect
	github.com/mitchellh/copystructure v1.0.0 // indirect
	github.com/mitchellh/reflectwalk v1.0.0 // indirect
	github.com/moby/locker v1.0.1 // indirect
	github.com/moby/patternmatcher v0.5.0 // indirect
	github.com/moby/sys/mountinfo v0.6.2 // indirect
	github.com/moby/sys/signal v0.7.0 // indirect
	github.com/modern-go/concurrent v0.0.0-20180306012644-bacd9c7ef1dd // indirect
	github.com/modern-go/reflect2 v1.0.2 // indirect
	github.com/opencontainers/go-digest v1.0.0 // indirect
	github.com/opencontainers/runc v1.1.5 // indirect
	github.com/opencontainers/runtime-spec v1.1.0-rc.1 // indirect
	github.com/pmezard/go-difflib v1.0.0 // indirect
	github.com/rogpeppe/go-internal v1.10.0 // indirect
	github.com/russross/blackfriday/v2 v2.1.0 // indirect
	github.com/shopspring/decimal v1.2.0 // indirect
	github.com/sirupsen/logrus v1.9.0 // indirect
	github.com/spf13/cast v1.3.1 // indirect
	github.com/spf13/pflag v1.0.5 // indirect
	github.com/syndtr/gocapability v0.0.0-20200815063812-42c35b437635 // indirect
	github.com/tonistiigi/fsutil v0.0.0-20230105215944-fb433841cbfa // indirect
	github.com/trivago/tgo v1.0.7 // indirect
	github.com/tsuyoshiwada/go-gitcmd v0.0.0-20180205145712-5f1f5f9475df // indirect
	github.com/ulikunitz/xz v0.5.11 // indirect
	github.com/urfave/cli/v2 v2.3.0 // indirect
	github.com/vbatts/tar-split v0.11.3 // indirect
	go.opentelemetry.io/contrib/instrumentation/google.golang.org/grpc/otelgrpc v0.29.0 // indirect
	go.opentelemetry.io/otel v1.13.0 // indirect
	go.opentelemetry.io/otel/exporters/otlp/otlptrace v1.4.1 // indirect
	go.opentelemetry.io/otel/sdk v1.4.1 // indirect
	go.opentelemetry.io/otel/trace v1.13.0 // indirect
	go.opentelemetry.io/proto/otlp v0.12.0 // indirect
	golang.org/x/crypto v0.7.0 // indirect
	golang.org/x/exp v0.0.0-20230321023759-10a507213a29 // indirect
	golang.org/x/mod v0.9.0 // indirect
	golang.org/x/net v0.8.0 // indirect
	golang.org/x/sys v0.7.0 // indirect
	golang.org/x/term v0.6.0 // indirect
	golang.org/x/text v0.8.0 // indirect
	golang.org/x/tools v0.6.0 // indirect
	google.golang.org/genproto v0.0.0-20230306155012-7f2fa6fef1f4 // indirect
	google.golang.org/grpc v1.54.0 // indirect
	google.golang.org/protobuf v1.30.0 // indirect
	gopkg.in/go-playground/assert.v1 v1.2.1 // indirect
	gopkg.in/yaml.v2 v2.4.0 // indirect
	gopkg.in/yaml.v3 v3.0.1 // indirect
)

// Needed to avoid go mod error:
//   module declares its path as: github.com/sirupsen/logrus
//     but was required as: github.com/Sirupsen/logrus
// See https://github.com/moby/moby/issues/42939
replace github.com/docker/docker => github.com/docker/docker v20.10.3-0.20220414164044-61404de7df1a+incompatible

go 1.19
